<?xml version="1.0" encoding="utf-8"?>
<svg viewBox="176.338 192.285 190 160" xmlns="http://www.w3.org/2000/svg">
  <g transform="matrix(1.250362, 0, 0, -1.227041, -499.956207, 971.801453)">
    <path id="path-5" style="stroke-width: 0.406288; fill: rgb(255, 255, 255);" d="M 660.316 569.67 C 642.355 569.67 627.797 554.724 627.797 536.286 C 627.797 522.27 636.325 509.747 649.148 504.933 L 661.983 536.394 L 673.07 505.579 C 685.057 510.825 692.835 522.91 692.835 536.286 C 692.836 554.724 678.276 569.67 660.316 569.67 Z"/>
    <path style="stroke-width: 2.55947; fill: rgb(255, 255, 255);" d="M 540.879 635.282 L 579.969 635.282 C 591.635 635.282 600.624 632.488 606.937 626.898 C 613.25 621.309 616.407 613.361 616.407 603.055 C 616.407 595.078 614.79 588.732 611.558 584.015 C 608.326 579.299 603.579 576.358 597.317 575.194 C 604.841 573.331 610.674 569.43 614.816 563.491 C 619.007 557.61 621.103 550.245 621.103 541.394 C 621.103 529.749 617.669 520.753 610.801 514.407 C 603.932 508.06 594.16 504.887 581.483 504.887 L 540.879 504.887 Z" id="path-6"/>
  </g>
</svg>